# 3ds Max Wavefront OBJ Exporter v0.97b - (c)2007 guruware
# File Created: 11.05.2021 20:39:25

mtllib stair.mtl

#
# object Box001
#

v  -0.2500000596 0.0000001043 -0.5000000000
v  0.2500000596 0.0000001043 -0.5000000000
v  -0.1821938157 0.2601714730 -0.4347143471
v  0.1733611226 0.2834942937 -0.5000000000
v  0.2500000596 0.2535878420 -0.5000000000
v  -0.1832993627 0.2126243860 -0.4340283573
v  -0.0939170495 0.2836201191 -0.4947279096
v  0.2500001192 -0.2499997318 -0.5006383061
v  -0.2500000596 -0.2499997318 -0.5006383657
v  0.2500000596 0.1117714792 -0.5000000000
v  -0.1344411522 0.0602671281 -0.5000000000
v  -0.0732999593 0.2834942937 -0.5000000000
v  -0.0860314220 0.1457714587 -0.5000000000
v  -0.0850447342 0.2791818380 -0.4986672103
v  -0.2267343998 0.2659322619 -0.3778769970
v  -0.2267343998 0.2397242934 -0.3778769970
v  -0.1876408905 0.0325220637 -0.2699460089
v  -0.2042757720 0.0238465238 -0.2699460089
v  -0.2042757720 0.0238465238 -0.2469006181
v  -0.1876408905 0.0325220637 -0.2469006181
v  -0.1540558338 0.1925089359 -0.3445060253
v  -0.1384944916 0.1813707948 -0.3450227678
v  -0.1382796466 0.1815365255 -0.3238966763
v  -0.1540706456 0.1924821883 -0.3239200115
v  -0.1363966167 0.1929455847 -0.4668806493
v  -0.1796619147 0.2272386700 -0.4382376075
v  -0.2255782336 0.2497242987 -0.3793137074
v  -0.2267869115 0.2559322715 -0.3778560758
v  -0.1710618138 0.2427395582 -0.4424840808
v  -0.1477380395 0.2547305822 -0.4595273435
v  -0.1265510023 0.2409575135 -0.4764152169
v  -0.1352214068 0.1941576749 -0.4589670300
v  -0.1744109392 0.2273687869 -0.4322316647
v  -0.2163646370 0.2499526143 -0.3687753379
v  -0.2175733149 0.2561606169 -0.3673177063
v  -0.1658108234 0.2428696901 -0.4371194243
v  -0.1445431709 0.2542994618 -0.4553491771
v  -0.1262462586 0.2406984121 -0.4705972672
v  0.2500000596 0.0380001068 -0.0367238112
v  0.2500000596 0.0380001068 -0.4620000124
v  0.2500000596 0.1117714792 -0.4620000124
v  0.2500000596 0.2155878544 -0.4620000124
v  0.2500000596 0.2155878544 -0.0367238112
v  0.2500000596 0.1117714792 -0.0367238112
v  0.2010000646 0.0830001086 -0.0817238092
v  0.2010000646 0.0830001086 -0.4170000255
v  0.2010000646 0.1117714792 -0.4170000255
v  0.2010000646 0.1705878526 -0.4170000255
v  0.2010000646 0.1705878526 -0.0817238092
v  0.2010000646 0.1117714792 -0.0817238092
v  0.2500000596 0.0000001043 -0.0000000000
v  -0.1821938157 0.2601714730 -0.0000000000
v  0.2500000596 0.2535878420 -0.0000000000
v  0.2500000596 -0.2499997765 -0.0000000000
v  -0.1344411522 0.0602671281 -0.0000000000
v  -0.2267343849 0.2659322619 -0.0000000000
v  -0.0939170495 0.2836201191 -0.0000000000
v  -0.0850447342 0.2791818380 -0.0000000000
v  -0.0732999593 0.2834942937 -0.0000000000
v  -0.2500000596 -0.2499997765 -0.0000000000
v  -0.0857537016 0.1459549516 -0.0000000000
v  -0.0867130011 0.1466092169 -0.0000000000
v  -0.2267362475 0.2559322715 -0.0000000000
v  0.2500000596 0.2523116469 -0.0000000000
v  0.2500000596 0.1117714792 -0.0000000000
v  0.2500000596 0.0000001043 0.5000000000
v  -0.2500000596 0.0000001043 0.5000000000
v  -0.1344411522 0.0602671281 0.5000000000
v  0.2500000596 0.1117714792 0.5000000000
v  0.2500000596 0.2535878420 0.5000000000
v  0.1733611226 0.2834942937 0.5000000000
v  0.1733611226 0.2834942937 -0.0000000000
v  -0.1744109392 0.2273687869 0.4322316647
v  -0.1658108234 0.2428696901 0.4371194243
v  -0.1445431709 0.2542994618 0.4553491771
v  -0.1352214068 0.1941576749 0.4589670300
v  -0.2500000596 -0.2499997318 0.5006383657
v  0.2500001192 -0.2499997318 0.5006383061
v  -0.0732999593 0.2834942937 0.5000000000
v  -0.0860314220 0.1457714587 0.5000000000
v  0.2010000646 0.1117714792 0.4170000255
v  0.2010000646 0.1705878526 0.4170000255
v  0.2010000646 0.1705878526 0.0817238092
v  0.2010000646 0.1117714792 0.0817238092
v  -0.1262462586 0.2406984121 0.4705972672
v  -0.0850447342 0.2791818380 0.4986672103
v  -0.1821938157 0.2601714730 0.4347143471
v  -0.2267343998 0.2659322619 0.3778769970
v  -0.2163646370 0.2499526143 0.3687753379
v  -0.2175733149 0.2561606169 0.3673177063
v  -0.2267343998 0.2397242934 0.3778769970
v  -0.1832993627 0.2126243860 0.4340283573
v  -0.1832993627 0.2126243860 -0.0000000000
v  -0.2267343998 0.2397242934 -0.0000000000
v  0.2010000646 0.0830001086 0.0817238092
v  0.2010000646 0.0830001086 0.4170000255
v  -0.2042757720 0.0238465238 0.2699460089
v  -0.1876408905 0.0325220637 0.2699460089
v  -0.2500000596 0.0000001043 -0.0000000000
v  -0.2497649342 0.0001227289 -0.0000000000
v  -0.2042757720 0.0238465238 0.2469006181
v  -0.1384944916 0.1813707948 0.3450227678
v  -0.1540558338 0.1925089359 0.3445060253
v  -0.1382796466 0.1815365255 0.3238966763
v  -0.1876408905 0.0325220637 0.2469006181
v  -0.1540706456 0.1924821883 0.3239200115
v  -0.1796619147 0.2272386700 0.4382376075
v  -0.1363966167 0.1929455847 0.4668806493
v  -0.2255782336 0.2497242987 0.3793137074
v  -0.2266938537 0.2497242987 -0.0000000000
v  -0.1710618138 0.2427395582 0.4424840808
v  -0.2267869115 0.2559322715 0.3778560758
v  -0.0939170495 0.2836201191 0.4947279096
v  -0.1477380395 0.2547305822 0.4595273435
v  -0.1265510023 0.2409575135 0.4764152169
v  -0.2174790204 0.2499526143 -0.0000000000
v  0.2500000596 0.1117714792 0.4620000124
v  0.2500000596 0.0380001068 0.4620000124
v  0.2500000596 0.2155878544 0.4620000124
v  0.2500000596 0.2155878544 0.0367238112
v  0.2500000596 0.0380001068 0.0367238112
v  0.2500000596 0.1117714792 0.0367238112
v  -0.2175226957 0.2561606169 -0.0000000000
v  -0.1347147226 0.0601244532 -0.0000000000
v  -0.1830235869 0.2124343365 -0.0000000000
v  0.2500000596 0.0012762956 -0.0000000000
# 126 vertices

vn 0.0000000420 0.0012766453 -0.9999991655
vn 0.0000000000 0.0019551208 -0.9999980927
vn 0.0000000000 0.0000000000 -1.0000000000
vn 0.0000000000 0.0000000000 -1.0000000000
vn 0.0000000000 0.0000000000 -1.0000000000
vn 0.0000000420 0.0012766453 -0.9999991655
vn 0.1849545538 0.9827470779 -0.0000000000
vn 0.1849545687 0.9827470779 -0.0000000000
vn 0.3635271490 0.9315835834 -0.0000000000
vn 0.3635271490 0.9315835834 -0.0000000000
vn 0.3635271490 0.9315835834 -0.0000000000
vn 0.1849545538 0.9827470779 -0.0000000000
vn -0.7027764916 0.1209512576 -0.7010535002
vn -0.7147514820 0.1837749630 -0.6748014688
vn -0.6313133240 -0.0273936652 -0.7750439048
vn -0.6313133240 -0.0273936652 -0.7750439048
vn -0.6159232259 -0.0481637530 -0.7863325477
vn -0.7027764916 0.1209512576 -0.7010535002
vn 0.0000000000 -1.0000000000 -0.0000000893
vn 0.0000000000 -1.0000000000 -0.0000000000
vn 0.0000000000 -1.0000000000 0.0000000000
vn 0.0000000000 -1.0000000000 0.0000000000
vn 0.0000000000 -1.0000000000 -0.0000000893
vn 0.0000000000 -1.0000000000 -0.0000000893
vn 0.0000000000 0.0000000000 -1.0000000000
vn 0.0000000000 0.0000000000 -1.0000000000
vn -0.1263351440 -0.0050006919 -0.9919750094
vn -0.1263351440 -0.0050006919 -0.9919750094
vn -0.0472614318 0.0043689720 -0.9988729954
vn 0.0000000000 0.0000000000 -1.0000000000
vn 1.0000000000 0.0000000351 -0.0000000000
vn 1.0000000000 0.0000000000 -0.0000000000
vn 1.0000000000 0.0000001680 0.0000000352
vn 1.0000000000 0.0000001680 0.0000000352
vn 1.0000000000 0.0000001193 -0.0000000000
vn 1.0000000000 0.0000000351 -0.0000000000
vn 0.0000000420 0.0012766453 -0.9999991655
vn 0.0000001192 0.0025532178 -0.9999967217
vn 0.0000000352 0.0025533861 -0.9999967217
vn 0.0000000352 0.0025533861 -0.9999967217
vn 0.0000000000 0.0019551208 -0.9999980927
vn 0.0000000420 0.0012766453 -0.9999991655
vn 1.0000000000 0.0000000000 -0.0000000000
vn 1.0000000000 0.0000000000 -0.0000000000
vn 1.0000000000 0.0000000000 -0.0000000000
vn 1.0000000000 0.0000000000 -0.0000000000
vn 1.0000000000 0.0000000000 -0.0000000000
vn 1.0000000000 0.0000000000 -0.0000000000
vn -0.1263351440 -0.0050006919 -0.9919750094
vn 0.0000000000 0.0000000000 -1.0000000000
vn 0.0000000000 0.0000000000 -1.0000000000
vn 0.0000000000 0.0000000000 -1.0000000000
vn 0.0000000000 0.0000000000 -1.0000000000
vn -0.1263351440 -0.0050006919 -0.9919750094
vn -0.6313133240 -0.0273936652 -0.7750439048
vn -0.6642651558 -0.0581289306 -0.7452334166
vn -0.6159232259 -0.0481637530 -0.7863325477
vn -0.2923980951 -0.0086189369 -0.9562578201
vn -0.0472614318 0.0043689720 -0.9988729954
vn -0.1263351440 -0.0050006919 -0.9919750094
vn 0.1282695532 0.9917393327 -0.0000000002
vn 0.1282696128 0.9917393327 -0.0000000000
vn -0.0654566810 0.9978554249 0.0000000000
vn -0.0654566810 0.9978554249 0.0000000000
vn -0.1677285284 0.9858332276 -0.0000000000
vn 0.1282695532 0.9917393327 -0.0000000002
vn -0.7027764916 0.1209512576 -0.7010535002
vn -0.9317934513 -0.0994491205 -0.3491000533
vn -0.9670240879 -0.1163865551 -0.2265360802
vn -0.9670240879 -0.1163865551 -0.2265360802
vn -0.7147514820 0.1837749630 -0.6748014688
vn -0.7027764916 0.1209512576 -0.7010535002
vn -0.5293387771 -0.8484105468 -0.0000000000
vn -0.5586102009 -0.8294292688 -0.0013013943
vn -0.5485351682 -0.8361274600 -0.0000000098
vn -0.5485351682 -0.8361274600 -0.0000000098
vn -0.5293387175 -0.8484106064 -0.0000000000
vn -0.5293387771 -0.8484105468 -0.0000000000
vn 1.0000000000 0.0000000000 -0.0000000000
vn 1.0000000000 0.0000000000 -0.0000000000
vn 1.0000000000 0.0000000000 -0.0000000000
vn 1.0000000000 0.0000000000 -0.0000000000
vn 1.0000000000 0.0000000000 -0.0000000000
vn 1.0000000000 0.0000000000 -0.0000000000
vn -0.4624177217 0.8866621852 -0.0000000130
vn -0.4624178708 0.8866621256 0.0000000461
vn -0.4624178410 0.8866621256 0.0000000301
vn -0.4624178410 0.8866621256 0.0000000301
vn -0.4624177217 0.8866621852 -0.0000000195
vn -0.4624177217 0.8866621852 -0.0000000130
vn -0.4624190927 0.8866614699 0.0000000000
vn -0.4624185562 0.8866617680 0.0000000000
vn -0.4624179006 0.8866621256 -0.0000000451
vn -0.4624177217 0.8866621852 -0.0000000130
vn -0.4624190927 0.8866614699 0.0000000000
vn -0.4624179006 0.8866621256 -0.0000000451
vn -0.4624177217 0.8866621852 -0.0000000130
vn -0.4624179006 0.8866621256 -0.0000000451
vn -0.4624178708 0.8866621256 0.0000000461
vn -0.5586102009 -0.8294292688 -0.0013013943
vn -0.5651857257 -0.8249626756 -0.0013133428
vn -0.5530769825 -0.8330916762 0.0080082454
vn -0.5530769825 -0.8330916762 0.0080082454
vn -0.5711550713 -0.8208394051 0.0021339480
vn -0.5586102009 -0.8294292688 -0.0013013943
vn -0.5634517670 -0.8261489272 -0.0000000037
vn -0.5638102889 -0.8259043097 0.0000000000
vn -0.5634193420 -0.8261702061 0.0012073702
vn -0.5651857257 -0.8249626756 -0.0013133428
vn -0.5634517670 -0.8261489272 -0.0000000037
vn -0.5634193420 -0.8261702061 0.0012073702
vn -0.5651857257 -0.8249626756 -0.0013133428
vn -0.5634193420 -0.8261702061 0.0012073702
vn -0.5530769825 -0.8330916762 0.0080082454
vn 0.2603247166 0.3235979974 0.9096786976
vn 0.8280245066 0.0160351135 0.5604625940
vn -0.7181787491 0.4716915488 0.5115920305
vn -0.7181787491 0.4716915488 0.5115920305
vn -0.7825589776 0.4359670579 0.4444481730
vn 0.2603247166 0.3235979974 0.9096786976
vn 0.6812879443 -0.4703603387 -0.5608991385
vn 0.2777890265 -0.5041603446 -0.8177136183
vn 0.8280245066 0.0160351135 0.5604625940
vn 0.8280245066 0.0160351135 0.5604625940
vn 0.2603247166 0.3235979974 0.9096786976
vn 0.6812879443 -0.4703603387 -0.5608991385
vn 0.6812879443 -0.4703603387 -0.5608991385
vn -0.9090143442 0.0908128023 -0.4067504704
vn -0.7815452814 -0.0715148821 -0.6197359562
vn -0.7815452814 -0.0715148821 -0.6197359562
vn 0.2777890265 -0.5041603446 -0.8177136183
vn 0.6812879443 -0.4703603387 -0.5608991385
vn -0.9090143442 0.0908128023 -0.4067504704
vn -0.7825589776 0.4359670579 0.4444481730
vn -0.7181787491 0.4716915488 0.5115920305
vn -0.7181787491 0.4716915488 0.5115920305
vn -0.7815452814 -0.0715148821 -0.6197359562
vn -0.9090143442 0.0908128023 -0.4067504704
vn -0.6926066875 -0.0341186672 -0.7205080986
vn -0.7032198310 -0.0303162225 -0.7103258371
vn -0.5858464837 -0.0584351532 -0.8083125949
vn -0.5858464837 -0.0584351532 -0.8083125949
vn -0.1263351440 -0.0050006919 -0.9919750094
vn -0.6926066875 -0.0341186672 -0.7205080986
vn -0.9420017600 0.0625148043 -0.3297341466
vn -0.9422386885 0.0605358891 -0.3294262588
vn -0.7032198310 -0.0303162225 -0.7103258371
vn -0.7032198310 -0.0303162225 -0.7103258371
vn -0.6926066875 -0.0341186672 -0.7205080986
vn -0.9420017600 0.0625148043 -0.3297341466
vn -0.9999824166 0.0059265676 -0.0000000055
vn -0.9999917746 0.0040545706 -0.0000000000
vn -0.9422386885 0.0605358891 -0.3294262588
vn -0.9422386885 0.0605358891 -0.3294262588
vn -0.9420017600 0.0625148043 -0.3297341466
vn -0.9999824166 0.0059265676 -0.0000000055
vn -0.7132245898 -0.1306957752 -0.6886430979
vn -0.6455056071 -0.0733734146 -0.7602229118
vn -0.9398001432 -0.0108153140 -0.3415533602
vn -0.9398001432 -0.0108153140 -0.3415533602
vn -0.9478938580 0.0042648367 -0.3185577989
vn -0.7132245898 -0.1306957752 -0.6886430979
vn -0.7132245898 -0.1306957752 -0.6886430979
vn -0.4699488878 -0.0203256309 -0.8824595809
vn -0.5777133107 0.0702908188 -0.8132075667
vn -0.5777133107 0.0702908188 -0.8132075667
vn -0.6455056071 -0.0733734146 -0.7602229118
vn -0.7132245898 -0.1306957752 -0.6886430979
vn -0.4699488878 -0.0203256309 -0.8824595809
vn -0.2923980951 -0.0086189369 -0.9562578201
vn -0.5367561579 0.0349347629 -0.8430138826
vn -0.5367561579 0.0349347629 -0.8430138826
vn -0.5777133107 0.0702908188 -0.8132075667
vn -0.4699488878 -0.0203256309 -0.8824595809
vn -0.1263351440 -0.0050006919 -0.9919750094
vn -0.5858464837 -0.0584351532 -0.8083125949
vn -0.5367561579 0.0349347629 -0.8430138826
vn 0.3289343715 0.8970325589 -0.2951859534
vn 0.3157094121 0.9016503096 -0.2955576479
vn 0.5157566667 0.8288096189 -0.2169553041
vn 0.5157566667 0.8288096189 -0.2169553041
vn 0.5214056969 0.8284847140 -0.2043261528
vn 0.3289343715 0.8970325589 -0.2951859534
vn 0.1419099569 0.9791598916 -0.1452842355
vn 0.0577388592 0.9957281351 -0.0720536485
vn 0.3157094121 0.9016503096 -0.2955576479
vn 0.3157094121 0.9016503096 -0.2955576479
vn 0.3289343715 0.8970325589 -0.2951859534
vn 0.1419099569 0.9791598916 -0.1452842355
vn -0.0247680880 0.9996932149 0.0000000001
vn -0.0247693621 0.9996932149 -0.0000000000
vn 0.0577388592 0.9957281351 -0.0720536485
vn 0.0577388592 0.9957281351 -0.0720536485
vn 0.1419099569 0.9791598916 -0.1452842355
vn -0.0247680880 0.9996932149 0.0000000001
vn -0.0653469339 -0.9947195649 0.0791375190
vn 0.0948445350 -0.9931156635 -0.0687447414
vn 0.0909122154 -0.9934725761 -0.0689000487
vn 0.0909122154 -0.9934725761 -0.0689000487
vn -0.0212307330 -0.9989659190 0.0402045697
vn -0.0653469339 -0.9947195649 0.0791375190
vn -0.1082592383 -0.9934297204 -0.0371122472
vn -0.0947955400 -0.9950392246 -0.0301789436
vn 0.0909122154 -0.9934725761 -0.0689000487
vn 0.0909122154 -0.9934725761 -0.0689000487
vn 0.0948445350 -0.9931156635 -0.0687447414
vn -0.1082592383 -0.9934297204 -0.0371122472
vn -0.1082592383 -0.9934297204 -0.0371122472
vn -0.5497119427 -0.8353120089 -0.0084066186
vn -0.5413473845 -0.8406717777 0.0146268262
vn -0.5413473845 -0.8406717777 0.0146268262
vn -0.0947955400 -0.9950392246 -0.0301789436
vn -0.1082592383 -0.9934297204 -0.0371122472
vn -0.9764000177 0.2055740803 0.0661988780
vn -0.9691256285 0.2206053287 0.1101307124
vn -0.9698154926 0.2193678766 0.1064687744
vn -0.9698154926 0.2193678766 0.1064687744
vn -0.9772177935 0.2035075873 0.0602497496
vn -0.9764000177 0.2055740803 0.0661988780
vn -0.5367561579 0.0349347629 -0.8430138826
vn -0.2923980951 -0.0086189369 -0.9562578201
vn -0.1263351440 -0.0050006919 -0.9919750094
vn 1.0000000000 0.0000001193 -0.0000000000
vn 1.0000000000 0.0000000000 -0.0000000000
vn 1.0000000000 0.0000000000 -0.0000000000
vn 1.0000000000 0.0000000000 -0.0000000000
vn 1.0000000000 0.0000000000 -0.0000000000
vn 1.0000000000 0.0000001193 -0.0000000000
vn 1.0000000000 0.0000000000 -0.0000000000
vn 1.0000000000 0.0000000000 -0.0000000000
vn 1.0000000000 0.0000000000 -0.0000000000
vn 1.0000000000 0.0000000000 -0.0000000000
vn 1.0000000000 0.0000000000 -0.0000000000
vn 1.0000000000 0.0000000000 -0.0000000000
vn 1.0000000000 0.0000000000 -0.0000000000
vn 1.0000000000 0.0000000000 -0.0000000000
vn 1.0000000000 0.0000000000 -0.0000000000
vn 1.0000000000 0.0000000000 -0.0000000000
vn 1.0000000000 0.0000000000 -0.0000000000
vn 1.0000000000 0.0000000000 -0.0000000000
vn 1.0000000000 0.0000000000 -0.0000000000
vn 1.0000000000 0.0000000000 -0.0000000000
vn 1.0000000000 0.0000000000 -0.0000000000
vn 0.6764050722 0.7365298271 -0.0000000000
vn 0.6764050722 0.7365298271 -0.0000000000
vn 0.6764050722 0.7365298271 -0.0000000000
vn 0.6764050722 0.7365298271 -0.0000000000
vn 0.6764051318 0.7365297675 -0.0000000000
vn 0.6764050722 0.7365298271 -0.0000000000
vn 0.6764049530 0.0000000000 0.7365299463
vn 0.6764049530 0.0000000000 0.7365298867
vn 0.6764049530 0.0000000000 0.7365299463
vn 0.6764049530 0.0000000000 0.7365299463
vn 0.6764049530 0.0000000000 0.7365299463
vn 0.6764049530 0.0000000000 0.7365299463
vn 0.6764049530 0.0000000000 0.7365298867
vn 0.6764049530 0.0000000000 0.7365299463
vn 0.6764049530 0.0000000000 0.7365298867
vn 0.6764049530 0.0000000000 0.7365298867
vn 0.6764049530 0.0000000000 0.7365299463
vn 0.6764049530 0.0000000000 0.7365298867
vn 0.6764050722 -0.7365298271 -0.0000000000
vn 0.6764050722 -0.7365298271 -0.0000000000
vn 0.6764050722 -0.7365298271 -0.0000000000
vn 0.6764050722 -0.7365298271 -0.0000000000
vn 0.6764051318 -0.7365297675 -0.0000000000
vn 0.6764050722 -0.7365298271 -0.0000000000
vn 0.6764050126 0.0000000000 -0.7365298867
vn 0.6764049530 0.0000000000 -0.7365298867
vn 0.6764049530 0.0000000000 -0.7365298867
vn 0.6764049530 0.0000000000 -0.7365298867
vn 0.6764050722 0.0000000000 -0.7365298271
vn 0.6764050126 0.0000000000 -0.7365298867
vn 0.6764049530 0.0000000000 -0.7365298867
vn 0.6764050722 0.0000000000 -0.7365298271
vn 0.6764050126 0.0000000000 -0.7365298867
vn 0.6764050126 0.0000000000 -0.7365298867
vn 0.6764049530 0.0000000000 -0.7365298867
vn 0.6764049530 0.0000000000 -0.7365298867
vn -0.2567239404 0.9664847851 -0.0000000000
vn -0.2567239404 0.9664847851 -0.0000000000
vn -0.1677285284 0.9858332276 -0.0000000000
vn -0.1677285284 0.9858332276 -0.0000000000
vn -0.0654566810 0.9978554249 0.0000000000
vn -0.2567239404 0.9664847851 -0.0000000000
vn -0.9670240879 -0.1163865551 -0.2265360802
vn -0.9317934513 -0.0994491205 -0.3491000533
vn -0.9999590516 -0.0090463841 0.0000000006
vn -0.9999590516 -0.0090463841 0.0000000006
vn -0.9999752641 -0.0070351660 -0.0000000000
vn -0.9670240879 -0.1163865551 -0.2265360802
vn 0.1849545538 0.9827470779 -0.0000000000
vn 0.0000000000 1.0000000000 -0.0000000000
vn 0.0000000000 1.0000000000 -0.0000000000
vn 0.0000000000 1.0000000000 -0.0000000000
vn 0.1849545687 0.9827470779 -0.0000000000
vn 0.1849545538 0.9827470779 -0.0000000000
vn -1.0000000000 0.0000000000 -0.0000000000
vn -1.0000000000 0.0000000000 -0.0000000000
vn -1.0000000000 0.0000000000 -0.0000000000
vn -1.0000000000 0.0000000000 -0.0000000000
vn -1.0000000000 0.0000000000 -0.0000000000
vn -1.0000000000 0.0000000000 -0.0000000000
vn 0.0559427366 0.9984340072 -0.0000000000
vn -0.0167932063 0.9998589754 -0.0000000000
vn 0.4473872483 0.8943403363 -0.0000000000
vn 0.4473872483 0.8943403363 -0.0000000000
vn 0.4473872185 0.8943403363 -0.0000000000
vn 0.0559427366 0.9984340072 -0.0000000000
vn -0.3446800113 0.9387202263 -0.0000000000
vn -0.0167932063 0.9998589754 -0.0000000000
vn 0.0559427366 0.9984340072 -0.0000000000
vn 0.0559427366 0.9984340072 -0.0000000000
vn -0.3446800113 0.9387202263 -0.0000000000
vn -0.3446800113 0.9387202263 -0.0000000000
vn -0.8701149225 0.4928488433 0.0000373606
vn -0.8702086210 0.4926834106 -0.0000000000
vn -0.8695450425 0.4938536584 -0.0000000000
vn -0.8695450425 0.4938536584 -0.0000000000
vn -0.8694514036 0.4940184951 -0.0000000000
vn -0.8701149225 0.4928488433 0.0000373606
vn -0.4624178410 0.8866621256 -0.0000000312
vn -0.4624179006 0.8866621256 -0.0000000451
vn -0.4624185562 0.8866617680 0.0000000000
vn -0.4624185562 0.8866617680 0.0000000000
vn -0.4624176323 0.8866622448 -0.0000001443
vn -0.4624178410 0.8866621256 -0.0000000312
vn -0.4624177217 0.8866621852 -0.0000000195
vn -0.4624178410 0.8866621256 0.0000000301
vn -0.4624178410 0.8866621256 -0.0000000312
vn -0.4624175727 0.8866623044 -0.0000002127
vn -0.4624177217 0.8866621852 -0.0000000195
vn -0.4624178410 0.8866621256 -0.0000000312
vn -0.4624175727 0.8866623044 -0.0000002127
vn -0.4624178410 0.8866621256 -0.0000000312
vn -0.4624176323 0.8866622448 -0.0000001443
vn -0.5660676360 -0.8243588209 -0.0000000112
vn -0.5679867268 -0.8230376840 -0.0002033968
vn -0.5634193420 -0.8261702061 0.0012073702
vn -0.5634193420 -0.8261702061 0.0012073702
vn -0.5638102889 -0.8259043097 0.0000000000
vn -0.5660676360 -0.8243588209 -0.0000000112
vn -0.5586102009 -0.8294292688 -0.0013013943
vn -0.5711550713 -0.8208394051 0.0021339480
vn -0.5679867268 -0.8230376840 -0.0002033968
vn -0.5485351682 -0.8361274600 -0.0000000098
vn -0.5586102009 -0.8294292688 -0.0013013943
vn -0.5679867268 -0.8230376840 -0.0002033968
vn -0.5485351682 -0.8361274600 -0.0000000098
vn -0.5679867268 -0.8230376840 -0.0002033968
vn -0.5660676360 -0.8243588209 -0.0000000112
vn -0.9478938580 0.0042648367 -0.3185577989
vn -0.9398001432 -0.0108153140 -0.3415533602
vn -0.9999999404 0.0002715767 0.0000000001
vn -0.9999999404 0.0002715767 0.0000000001
vn -1.0000000000 0.0001862647 -0.0000000000
vn -0.9478938580 0.0042648367 -0.3185577989
vn 0.0247728676 -0.9996930957 0.0000000000
vn -0.0653469339 -0.9947195649 0.0791375190
vn -0.0212307330 -0.9989659190 0.0402045697
vn -0.0212307330 -0.9989659190 0.0402045697
vn 0.0247728080 -0.9996930957 -0.0000000000
vn 0.0247728676 -0.9996930957 0.0000000000
vn 1.0000000000 0.0000000000 -0.0000000000
vn 1.0000000000 0.0000000000 -0.0000000000
vn 1.0000000000 0.0000000000 -0.0000000000
vn 1.0000000000 0.0000001193 -0.0000000000
vn 1.0000000000 0.0000000000 -0.0000000000
vn 1.0000000000 0.0000000000 -0.0000000000
vn 1.0000000000 0.0000000351 -0.0000000000
vn 1.0000000000 0.0000001193 -0.0000000000
vn 1.0000000000 0.0000000000 -0.0000000000
vn 1.0000000000 0.0000000000 -0.0000000000
vn 1.0000000000 0.0000000000 -0.0000000000
vn 1.0000000000 0.0000000000 -0.0000000000
vn 1.0000000000 0.0000000000 -0.0000000000
vn 1.0000000000 0.0000000000 -0.0000000000
vn 1.0000000000 0.0000000000 -0.0000000000
vn 1.0000000000 0.0000000000 -0.0000000000
vn 1.0000000000 0.0000000000 -0.0000000000
vn 1.0000000000 0.0000000000 -0.0000000000
vn 1.0000000000 0.0000000000 -0.0000000000
vn 1.0000000000 0.0000000000 -0.0000000000
vn 1.0000000000 0.0000000000 -0.0000000000
vn 0.0000000420 0.0012766452 0.9999991655
vn 0.0000000000 0.0000000000 1.0000000000
vn 0.0000000000 0.0000000000 1.0000000000
vn 0.0000000000 0.0000000000 1.0000000000
vn 0.0000000000 0.0019551208 0.9999980927
vn 0.0000000420 0.0012766452 0.9999991655
vn 0.1849545985 0.9827470779 -0.0000000000
vn 0.3635271490 0.9315835834 -0.0000000000
vn 0.3635271490 0.9315835834 -0.0000000000
vn 0.3635271490 0.9315835834 -0.0000000000
vn 0.1849545687 0.9827470779 -0.0000000000
vn 0.1849545985 0.9827470779 -0.0000000000
vn -0.7027765512 0.1209511533 0.7010534406
vn -0.6159231663 -0.0481637530 0.7863326073
vn -0.6313133240 -0.0273936484 0.7750439048
vn -0.6313133240 -0.0273936484 0.7750439048
vn -0.7147514820 0.1837749630 0.6748014688
vn -0.7027765512 0.1209511533 0.7010534406
vn 0.0000000000 -1.0000000000 0.0000000893
vn 0.0000000000 -1.0000000000 0.0000000893
vn 0.0000000000 -1.0000000000 0.0000000000
vn 0.0000000000 -1.0000000000 0.0000000000
vn 0.0000000000 -1.0000000000 -0.0000000000
vn 0.0000000000 -1.0000000000 0.0000000893
vn 0.0000000000 0.0000000000 1.0000000000
vn -0.0472614355 0.0043689725 0.9988729954
vn -0.1263351142 -0.0050006923 0.9919750094
vn -0.1263351142 -0.0050006923 0.9919750094
vn 0.0000000000 0.0000000000 1.0000000000
vn 0.0000000000 0.0000000000 1.0000000000
vn 1.0000000000 0.0000000351 -0.0000000000
vn 1.0000000000 0.0000001193 -0.0000000000
vn 1.0000000000 0.0000001680 -0.0000000352
vn 1.0000000000 0.0000001680 -0.0000000352
vn 1.0000000000 0.0000000000 -0.0000000000
vn 1.0000000000 0.0000000351 -0.0000000000
vn 0.0000000420 0.0012766452 0.9999991655
vn 0.0000000000 0.0019551208 0.9999980927
vn 0.0000000352 0.0025533859 0.9999967217
vn 0.0000000352 0.0025533859 0.9999967217
vn 0.0000001192 0.0025532178 0.9999967217
vn 0.0000000420 0.0012766452 0.9999991655
vn 1.0000000000 0.0000000000 -0.0000000000
vn 1.0000000000 0.0000000000 -0.0000000000
vn 1.0000000000 0.0000000000 -0.0000000000
vn 1.0000000000 0.0000000000 -0.0000000000
vn 1.0000000000 0.0000000000 -0.0000000000
vn 1.0000000000 0.0000000000 -0.0000000000
vn -0.1263351142 -0.0050006923 0.9919750094
vn 0.0000000000 0.0000000000 1.0000000000
vn 0.0000000000 0.0000000000 1.0000000000
vn 0.0000000000 0.0000000000 1.0000000000
vn 0.0000000000 0.0000000000 1.0000000000
vn -0.1263351142 -0.0050006923 0.9919750094
vn -0.6313133240 -0.0273936484 0.7750439048
vn -0.6159231663 -0.0481637530 0.7863326073
vn -0.6642651558 -0.0581289269 0.7452334166
vn -0.2923981249 -0.0086189359 0.9562578201
vn -0.1263351142 -0.0050006923 0.9919750094
vn -0.0472614355 0.0043689725 0.9988729954
vn 0.1282695532 0.9917393327 0.0000000002
vn -0.1677285284 0.9858332276 -0.0000000000
vn -0.0654566810 0.9978554249 0.0000000000
vn -0.0654566810 0.9978554249 0.0000000000
vn 0.1282696128 0.9917393327 -0.0000000000
vn 0.1282695532 0.9917393327 0.0000000002
vn -0.7027765512 0.1209511533 0.7010534406
vn -0.7147514820 0.1837749630 0.6748014688
vn -0.9670240879 -0.1163864583 0.2265359908
vn -0.9670240879 -0.1163864583 0.2265359908
vn -0.9317934513 -0.0994491205 0.3491000533
vn -0.7027765512 0.1209511533 0.7010534406
vn -0.5293387771 -0.8484105468 -0.0000000000
vn -0.5293387175 -0.8484106064 -0.0000000000
vn -0.5485351682 -0.8361274600 -0.0000000098
vn -0.5485351682 -0.8361274600 -0.0000000098
vn -0.5586102605 -0.8294292688 0.0013013941
vn -0.5293387771 -0.8484105468 -0.0000000000
vn 1.0000000000 0.0000000000 -0.0000000000
vn 1.0000000000 0.0000000000 -0.0000000000
vn 1.0000000000 0.0000000000 -0.0000000000
vn 1.0000000000 0.0000000000 -0.0000000000
vn 1.0000000000 0.0000000000 -0.0000000000
vn 1.0000000000 0.0000000000 -0.0000000000
vn -0.4624177516 0.8866621852 0.0000000130
vn -0.4624177516 0.8866621852 0.0000000195
vn -0.4624178410 0.8866621256 -0.0000000301
vn -0.4624178410 0.8866621256 -0.0000000301
vn -0.4624178410 0.8866621256 -0.0000000461
vn -0.4624177516 0.8866621852 0.0000000130
vn -0.4624177516 0.8866621852 0.0000000130
vn -0.4624178410 0.8866621256 -0.0000000461
vn -0.4624178410 0.8866621256 0.0000000451
vn -0.4624178410 0.8866621256 0.0000000451
vn -0.4624185562 0.8866617680 0.0000000000
vn -0.4624190927 0.8866614699 0.0000000000
vn -0.4624177516 0.8866621852 0.0000000130
vn -0.4624178410 0.8866621256 0.0000000451
vn -0.4624190927 0.8866614699 0.0000000000
vn -0.5586102605 -0.8294292688 0.0013013941
vn -0.5711550713 -0.8208394051 -0.0021339480
vn -0.5530770421 -0.8330916166 -0.0080082454
vn -0.5530770421 -0.8330916166 -0.0080082454
vn -0.5651857257 -0.8249626160 0.0013133432
vn -0.5586102605 -0.8294292688 0.0013013941
vn -0.5651857257 -0.8249626160 0.0013133432
vn -0.5530770421 -0.8330916166 -0.0080082454
vn -0.5634192824 -0.8261702657 -0.0012073714
vn -0.5634192824 -0.8261702657 -0.0012073714
vn -0.5638102889 -0.8259043097 0.0000000000
vn -0.5634517670 -0.8261489272 -0.0000000037
vn -0.5651857257 -0.8249626160 0.0013133432
vn -0.5634192824 -0.8261702657 -0.0012073714
vn -0.5634517670 -0.8261489272 -0.0000000037
vn 0.2603251040 0.3235978484 -0.9096786380
vn -0.7825589776 0.4359670579 -0.4444481730
vn -0.7181785107 0.4716916382 -0.5115922689
vn -0.7181785107 0.4716916382 -0.5115922689
vn 0.8280245066 0.0160350408 -0.5604625344
vn 0.2603251040 0.3235978484 -0.9096786380
vn 0.6812879443 -0.4703603089 0.5608991385
vn 0.2603251040 0.3235978484 -0.9096786380
vn 0.8280245066 0.0160350408 -0.5604625344
vn 0.8280245066 0.0160350408 -0.5604625344
vn 0.2777890265 -0.5041603446 0.8177136183
vn 0.6812879443 -0.4703603089 0.5608991385
vn 0.6812879443 -0.4703603089 0.5608991385
vn 0.2777890265 -0.5041603446 0.8177136183
vn -0.7815452814 -0.0715148598 0.6197358966
vn -0.7815452814 -0.0715148598 0.6197358966
vn -0.9090144038 0.0908128619 0.4067503214
vn 0.6812879443 -0.4703603089 0.5608991385
vn -0.9090144038 0.0908128619 0.4067503214
vn -0.7815452814 -0.0715148598 0.6197358966
vn -0.7181785107 0.4716916382 -0.5115922689
vn -0.7181785107 0.4716916382 -0.5115922689
vn -0.7825589776 0.4359670579 -0.4444481730
vn -0.9090144038 0.0908128619 0.4067503214
vn -0.6926066875 -0.0341186635 0.7205080986
vn -0.1263351142 -0.0050006923 0.9919750094
vn -0.5858464837 -0.0584351458 0.8083125949
vn -0.5858464837 -0.0584351458 0.8083125949
vn -0.7032198310 -0.0303162318 0.7103258371
vn -0.6926066875 -0.0341186635 0.7205080986
vn -0.9420017600 0.0625147894 0.3297341764
vn -0.6926066875 -0.0341186635 0.7205080986
vn -0.7032198310 -0.0303162318 0.7103258371
vn -0.7032198310 -0.0303162318 0.7103258371
vn -0.9422388673 0.0605357252 0.3294257224
vn -0.9420017600 0.0625147894 0.3297341764
vn -0.9999824166 0.0059265676 -0.0000000055
vn -0.9420017600 0.0625147894 0.3297341764
vn -0.9422388673 0.0605357252 0.3294257224
vn -0.9422388673 0.0605357252 0.3294257224
vn -0.9999917746 0.0040545706 -0.0000000000
vn -0.9999824166 0.0059265676 -0.0000000055
vn -0.7132246494 -0.1306957901 0.6886430383
vn -0.9478938580 0.0042648390 0.3185577691
vn -0.9398002028 -0.0108152973 0.3415533006
vn -0.9398002028 -0.0108152973 0.3415533006
vn -0.6455056071 -0.0733734146 0.7602229118
vn -0.7132246494 -0.1306957901 0.6886430383
vn -0.7132246494 -0.1306957901 0.6886430383
vn -0.6455056071 -0.0733734146 0.7602229118
vn -0.5777133107 0.0702908188 0.8132075667
vn -0.5777133107 0.0702908188 0.8132075667
vn -0.4699488878 -0.0203256458 0.8824595809
vn -0.7132246494 -0.1306957901 0.6886430383
vn -0.4699488878 -0.0203256458 0.8824595809
vn -0.5777133107 0.0702908188 0.8132075667
vn -0.5367562175 0.0349347703 0.8430138230
vn -0.5367562175 0.0349347703 0.8430138230
vn -0.2923981249 -0.0086189359 0.9562578201
vn -0.4699488878 -0.0203256458 0.8824595809
vn -0.1263351142 -0.0050006923 0.9919750094
vn -0.5367562175 0.0349347703 0.8430138230
vn -0.5858464837 -0.0584351458 0.8083125949
vn 0.3289343715 0.8970325589 0.2951860130
vn 0.5214056969 0.8284847140 0.2043261528
vn 0.5157567263 0.8288096189 0.2169551849
vn 0.5157567263 0.8288096189 0.2169551849
vn 0.3157094121 0.9016503096 0.2955576479
vn 0.3289343715 0.8970325589 0.2951860130
vn 0.1419099718 0.9791598916 0.1452842355
vn 0.3289343715 0.8970325589 0.2951860130
vn 0.3157094121 0.9016503096 0.2955576479
vn 0.3157094121 0.9016503096 0.2955576479
vn 0.0577389151 0.9957281351 0.0720537007
vn 0.1419099718 0.9791598916 0.1452842355
vn -0.0247680880 0.9996932149 0.0000000001
vn 0.1419099718 0.9791598916 0.1452842355
vn 0.0577389151 0.9957281351 0.0720537007
vn 0.0577389151 0.9957281351 0.0720537007
vn -0.0247693621 0.9996932149 -0.0000000000
vn -0.0247680880 0.9996932149 0.0000000001
vn -0.0653469339 -0.9947195649 -0.0791375265
vn -0.0212307442 -0.9989658594 -0.0402045809
vn 0.0909122601 -0.9934725761 0.0689000860
vn 0.0909122601 -0.9934725761 0.0689000860
vn 0.0948445350 -0.9931156635 0.0687447414
vn -0.0653469339 -0.9947195649 -0.0791375265
vn -0.1082593426 -0.9934297204 0.0371122584
vn 0.0948445350 -0.9931156635 0.0687447414
vn 0.0909122601 -0.9934725761 0.0689000860
vn 0.0909122601 -0.9934725761 0.0689000860
vn -0.0947955400 -0.9950392246 0.0301789436
vn -0.1082593426 -0.9934297204 0.0371122584
vn -0.1082593426 -0.9934297204 0.0371122584
vn -0.0947955400 -0.9950392246 0.0301789436
vn -0.5413473845 -0.8406717777 -0.0146268792
vn -0.5413473845 -0.8406717777 -0.0146268792
vn -0.5497119427 -0.8353120089 0.0084066186
vn -0.1082593426 -0.9934297204 0.0371122584
vn -0.9764000177 0.2055740803 -0.0661988929
vn -0.9772177935 0.2035075873 -0.0602497496
vn -0.9698154926 0.2193678617 -0.1064687520
vn -0.9698154926 0.2193678617 -0.1064687520
vn -0.9691256285 0.2206053287 -0.1101307124
vn -0.9764000177 0.2055740803 -0.0661988929
vn -0.5367562175 0.0349347703 0.8430138230
vn -0.1263351142 -0.0050006923 0.9919750094
vn -0.2923981249 -0.0086189359 0.9562578201
vn 1.0000000000 0.0000001193 -0.0000000000
vn 1.0000000000 0.0000000000 -0.0000000000
vn 1.0000000000 0.0000000000 -0.0000000000
vn 1.0000000000 0.0000000000 -0.0000000000
vn 1.0000000000 0.0000000000 -0.0000000000
vn 1.0000000000 0.0000001193 -0.0000000000
vn 1.0000000000 0.0000000000 -0.0000000000
vn 1.0000000000 0.0000000000 -0.0000000000
vn 1.0000000000 0.0000000000 -0.0000000000
vn 1.0000000000 0.0000000000 -0.0000000000
vn 1.0000000000 0.0000000000 -0.0000000000
vn 1.0000000000 0.0000000000 -0.0000000000
vn 1.0000000000 0.0000000000 -0.0000000000
vn 1.0000000000 0.0000000000 -0.0000000000
vn 1.0000000000 0.0000000000 -0.0000000000
vn 1.0000000000 0.0000000000 -0.0000000000
vn 1.0000000000 0.0000000000 -0.0000000000
vn 1.0000000000 0.0000000000 -0.0000000000
vn 1.0000000000 0.0000000000 -0.0000000000
vn 1.0000000000 0.0000000000 -0.0000000000
vn 1.0000000000 0.0000000000 -0.0000000000
vn 0.6764051318 0.7365297675 -0.0000000000
vn 0.6764051318 0.7365297675 -0.0000000000
vn 0.6764051318 0.7365297675 -0.0000000000
vn 0.6764051318 0.7365297675 -0.0000000000
vn 0.6764050722 0.7365298271 -0.0000000000
vn 0.6764051318 0.7365297675 -0.0000000000
vn 0.6764049530 0.0000000000 -0.7365299463
vn 0.6764049530 0.0000000000 -0.7365299463
vn 0.6764049530 0.0000000000 -0.7365298867
vn 0.6764049530 0.0000000000 -0.7365298867
vn 0.6764049530 0.0000000000 -0.7365298867
vn 0.6764049530 0.0000000000 -0.7365299463
vn 0.6764049530 0.0000000000 -0.7365298867
vn 0.6764049530 0.0000000000 -0.7365298867
vn 0.6764049530 0.0000000000 -0.7365299463
vn 0.6764049530 0.0000000000 -0.7365299463
vn 0.6764049530 0.0000000000 -0.7365299463
vn 0.6764049530 0.0000000000 -0.7365298867
vn 0.6764051318 -0.7365297675 -0.0000000000
vn 0.6764051318 -0.7365297675 -0.0000000000
vn 0.6764050722 -0.7365298271 -0.0000000000
vn 0.6764050722 -0.7365298271 -0.0000000000
vn 0.6764050722 -0.7365298271 -0.0000000000
vn 0.6764051318 -0.7365297675 -0.0000000000
vn 0.6764050126 0.0000000000 0.7365298867
vn 0.6764050722 0.0000000000 0.7365298271
vn 0.6764049530 0.0000000000 0.7365298867
vn 0.6764049530 0.0000000000 0.7365298867
vn 0.6764050126 0.0000000000 0.7365298867
vn 0.6764050126 0.0000000000 0.7365298867
vn 0.6764050126 0.0000000000 0.7365298867
vn 0.6764049530 0.0000000000 0.7365298867
vn 0.6764050126 0.0000000000 0.7365298867
vn 0.6764050126 0.0000000000 0.7365298867
vn 0.6764050722 0.0000000000 0.7365298271
vn 0.6764050126 0.0000000000 0.7365298867
vn -0.2567239404 0.9664847851 -0.0000000000
vn -0.0654566810 0.9978554249 0.0000000000
vn -0.1677285284 0.9858332276 -0.0000000000
vn -0.1677285284 0.9858332276 -0.0000000000
vn -0.2567239404 0.9664847851 -0.0000000000
vn -0.2567239404 0.9664847851 -0.0000000000
vn -0.9670240879 -0.1163864583 0.2265359908
vn -0.9999752641 -0.0070351660 -0.0000000000
vn -0.9999590516 -0.0090463841 0.0000000006
vn -0.9999590516 -0.0090463841 0.0000000006
vn -0.9317934513 -0.0994491205 0.3491000533
vn -0.9670240879 -0.1163864583 0.2265359908
vn 0.1849545985 0.9827470779 -0.0000000000
vn 0.1849545687 0.9827470779 -0.0000000000
vn 0.0000000000 1.0000000000 -0.0000000000
vn 0.0000000000 1.0000000000 -0.0000000000
vn 0.0000000000 1.0000000000 -0.0000000000
vn 0.1849545985 0.9827470779 -0.0000000000
vn -1.0000000000 0.0000000000 -0.0000000000
vn -1.0000000000 0.0000000000 -0.0000000000
vn -1.0000000000 0.0000000000 -0.0000000000
vn -1.0000000000 0.0000000000 -0.0000000000
vn -1.0000000000 0.0000000000 -0.0000000000
vn -1.0000000000 0.0000000000 -0.0000000000
vn 0.0559427366 0.9984340072 -0.0000000000
vn 0.4473872185 0.8943403363 -0.0000000000
vn 0.4473872185 0.8943403363 -0.0000000000
vn 0.4473872185 0.8943403363 -0.0000000000
vn -0.0167932063 0.9998589754 -0.0000000000
vn 0.0559427366 0.9984340072 -0.0000000000
vn -0.3446800411 0.9387202263 -0.0000000000
vn -0.3446800113 0.9387202263 -0.0000000000
vn 0.0559427366 0.9984340072 -0.0000000000
vn 0.0559427366 0.9984340072 -0.0000000000
vn -0.0167932063 0.9998589754 -0.0000000000
vn -0.3446800411 0.9387202263 -0.0000000000
vn -0.8701149225 0.4928488433 -0.0000373605
vn -0.8694514036 0.4940184951 -0.0000000000
vn -0.8695450425 0.4938536584 -0.0000000000
vn -0.8695450425 0.4938536584 -0.0000000000
vn -0.8702086210 0.4926834106 -0.0000000000
vn -0.8701149225 0.4928488433 -0.0000373605
vn -0.4624178112 0.8866621256 0.0000000311
vn -0.4624176323 0.8866622448 -0.0000001443
vn -0.4624185562 0.8866617680 0.0000000000
vn -0.4624185562 0.8866617680 0.0000000000
vn -0.4624178410 0.8866621256 0.0000000451
vn -0.4624178112 0.8866621256 0.0000000311
vn -0.4624175727 0.8866623044 -0.0000002127
vn -0.4624176323 0.8866622448 -0.0000001443
vn -0.4624178112 0.8866621256 0.0000000311
vn -0.4624178112 0.8866621256 0.0000000311
vn -0.4624178410 0.8866621256 -0.0000000301
vn -0.4624177516 0.8866621852 0.0000000195
vn -0.4624175727 0.8866623044 -0.0000002127
vn -0.4624178112 0.8866621256 0.0000000311
vn -0.4624177516 0.8866621852 0.0000000195
vn -0.5660676360 -0.8243588209 -0.0000000112
vn -0.5638102889 -0.8259043097 0.0000000000
vn -0.5634192824 -0.8261702657 -0.0012073714
vn -0.5634192824 -0.8261702657 -0.0012073714
vn -0.5679867864 -0.8230376244 0.0002033952
vn -0.5660676360 -0.8243588209 -0.0000000112
vn -0.5485351682 -0.8361274600 -0.0000000098
vn -0.5660676360 -0.8243588209 -0.0000000112
vn -0.5679867864 -0.8230376244 0.0002033952
vn -0.5679867864 -0.8230376244 0.0002033952
vn -0.5711550713 -0.8208394051 -0.0021339480
vn -0.5586102605 -0.8294292688 0.0013013941
vn -0.5485351682 -0.8361274600 -0.0000000098
vn -0.5679867864 -0.8230376244 0.0002033952
vn -0.5586102605 -0.8294292688 0.0013013941
vn -0.9478938580 0.0042648390 0.3185577691
vn -1.0000000000 0.0001862647 -0.0000000000
vn -0.9999999404 0.0002715767 0.0000000001
vn -0.9999999404 0.0002715767 0.0000000001
vn -0.9398002028 -0.0108152973 0.3415533006
vn -0.9478938580 0.0042648390 0.3185577691
vn 0.0247728676 -0.9996930957 0.0000000000
vn 0.0247728080 -0.9996930957 -0.0000000000
vn -0.0212307442 -0.9989658594 -0.0402045809
vn -0.0212307442 -0.9989658594 -0.0402045809
vn -0.0653469339 -0.9947195649 -0.0791375265
vn 0.0247728676 -0.9996930957 0.0000000000
vn 1.0000000000 0.0000000000 -0.0000000000
vn 1.0000000000 0.0000000000 -0.0000000000
vn 1.0000000000 0.0000000000 -0.0000000000
vn 1.0000000000 0.0000000000 -0.0000000000
vn 1.0000000000 0.0000000000 -0.0000000000
vn 1.0000000000 0.0000001193 -0.0000000000
vn 1.0000000000 0.0000000351 -0.0000000000
vn 1.0000000000 0.0000000000 -0.0000000000
vn 1.0000000000 0.0000001193 -0.0000000000
vn 1.0000000000 0.0000000000 -0.0000000000
vn 1.0000000000 0.0000000000 -0.0000000000
vn 1.0000000000 0.0000000000 -0.0000000000
vn 1.0000000000 0.0000000000 -0.0000000000
vn 1.0000000000 0.0000000000 -0.0000000000
vn 1.0000000000 0.0000000000 -0.0000000000
vn 1.0000000000 0.0000000000 -0.0000000000
vn 1.0000000000 0.0000000000 -0.0000000000
vn 1.0000000000 0.0000000000 -0.0000000000
vn 1.0000000000 0.0000000000 -0.0000000000
vn 1.0000000000 0.0000000000 -0.0000000000
vn 1.0000000000 0.0000000000 -0.0000000000
# 768 vertex normals

vt 0.6139827967 0.0005000000 0.0000000000
vt 0.8593669534 0.0065814629 0.0000000000
vt 0.0706202909 0.9437959194 0.0000000000
vt 0.2462470978 0.8937044740 0.0000000000
vt 0.8575273752 0.2573661208 0.0000000000
vt 0.5544010997 0.9887259007 0.0000000000
vt 0.0068190596 0.6760134101 0.0000000000
vt 0.0054762987 0.2530269325 0.0000000000
vt 0.0054762987 0.0005000000 0.0000000000
vt 0.7320141792 0.2573661208 0.0000000000
vt 0.6769124269 0.0163091291 0.0000000000
vt 0.0068190293 0.4241575599 0.0000000000
vt 0.0154288579 0.6809877157 0.0000000000
vt 0.0118294237 0.4261470735 0.0000000000
vt 0.0993262827 0.9211130738 0.0000000000
vt 0.5265609026 0.9629659653 0.0000000000
vt 0.6241325736 0.1216880083 0.0000000000
vt 0.6149331331 0.1193483174 0.0000000000
vt 0.6178211570 0.2589894235 0.0000000000
vt 0.6158967018 0.2585101426 0.0000000000
vt 0.7429992557 0.9646088481 0.0000000000
vt 0.7429992557 0.9901215434 0.0000000000
vt 0.4931523800 0.9046877027 0.0000000000
vt 0.5708209872 0.9355275631 0.0000000000
vt 0.3119886518 0.8780278563 0.0000000000
vt 0.7309281826 0.8372169733 0.0000000000
vt 0.7127213478 0.8627976775 0.0000000000
vt 0.6673224568 0.0567185842 0.0000000000
vt 0.6957685351 0.0236590076 0.0000000000
vt 0.6984193921 0.0263707750 0.0000000000
vt 0.3371974528 0.8773288727 0.0000000000
vt 0.3373689353 0.8814117908 0.0000000000
vt 0.7096884847 0.8601464629 0.0000000000
vt 0.7269036174 0.8365183473 0.0000000000
vt 0.6719774008 0.0620411187 0.0000000000
vt 0.7084901333 0.0142903496 0.0000000000
vt 0.7100472450 0.0164541118 0.0000000000
vt 0.3127247095 0.8808797598 0.0000000000
vt 0.7335846424 0.0054762838 0.0000000000
vt 0.6806431413 0.4266147912 0.0000000000
vt 0.9155578613 0.0061712731 0.0000000000
vt 0.9156823754 0.0252902303 0.0000000000
vt 0.8785928488 0.0255284961 0.0000000000
vt 0.9869560003 0.0057336241 0.0000000000
vt 0.6806432605 0.2118275315 0.0000000000
vt 0.7142435312 0.2345548421 0.0000000000
vt 0.9658997059 0.6127012968 0.0000000000
vt 0.5466579795 0.0005000000 0.0000000000
vt 0.5466579795 0.2152872235 0.0000000000
vt 0.5478915572 0.0901913866 0.0000000000
vt 0.9679433703 0.0249736570 0.0000000000
vt 0.2901746333 0.9211131930 0.0000000000
vt 0.9883895516 0.2573661208 0.0000000000
vt 0.2583256364 0.0005000228 0.0000000000
vt 0.6214643121 0.1329382956 0.0000000000
vt 0.2901746333 0.9437959194 0.0000000000
vt 0.0118293939 0.6760134101 0.0000000000
vt 0.0005001367 0.6760134101 0.0000000000
vt 0.0005000912 0.4234843254 0.0000000000
vt 0.2583256364 0.2530269623 0.0000000000
vt 0.0155787915 0.4284606874 0.0000000000
vt 0.5712026358 0.9451724291 0.0000000000
vt 0.7210626602 0.0054762838 0.0000000000
vt 0.9876877666 0.2573661208 0.0000000000
vt 0.9692107439 0.2389628440 0.0000000000
vt 0.8801673651 0.2389496863 0.0000000000
vt 0.5536078215 0.2429908961 0.0000000000
vt 0.6119732261 0.1305933148 0.0000000000
vt 0.8618975282 0.2573661208 0.0000000000
vt 0.9171559811 0.2573661208 0.0000000000
vt 0.2046976238 0.8937044740 0.0000000000
vt 0.2046976984 0.6411774158 0.0000000000
vt 0.6817308068 0.8871160746 0.0000000000
vt 0.7213287950 0.0084102154 0.0000000000
vt 0.6673521996 0.2475470006 0.0000000000
vt 0.6290766001 0.8432322145 0.0000000000
vt 0.5111750364 0.2530270517 0.0000000000
vt 0.5111749172 0.0005000000 0.0000000000
vt 0.0118292421 0.9258795977 0.0000000000
vt 0.0652039945 0.4284606874 0.0000000000
vt 0.9306679368 0.6923429966 0.0000000000
vt 0.9306680560 0.5230101347 0.0000000000
vt 0.9603733420 0.5230101347 0.0000000000
vt 0.9603732824 0.6923429966 0.0000000000
vt 0.6319431663 0.8439092040 0.0000000000
vt 0.0068189381 0.9278691411 0.0000000000
vt 0.2901746333 0.9899265766 0.0000000000
vt 0.0403103009 0.9899264574 0.0000000000
vt 0.6764084697 0.8824622035 0.0000000000
vt 0.6720071435 0.2475470006 0.0000000000
vt 0.7429992557 0.9012079835 0.0000000000
vt 0.7429992557 0.9040332437 0.0000000000
vt 0.5815116167 0.9354072809 0.0000000000
vt 0.7429992557 0.9618499279 0.0000000000
vt 0.2493143529 0.4620609879 0.0000000000
vt 0.2720416188 0.4284606576 0.0000000000
vt 0.5516496897 0.2425030619 0.0000000000
vt 0.4931524396 0.4854594767 0.0000000000
vt 0.5497550368 0.3809526265 0.0000000000
vt 0.5589762330 0.3832029402 0.0000000000
vt 0.5561422110 0.5010288358 0.0000000000
vt 0.5815642476 0.9452827573 0.0000000000
vt 0.9315975904 0.9887260199 0.0000000000
vt 0.9594374299 0.9629660845 0.0000000000
vt 0.5618976355 0.3720158637 0.0000000000
vt 0.9147956967 0.9451724887 0.0000000000
vt 0.4901549220 0.8876817226 0.0000000000
vt 0.6329815388 0.8685354590 0.0000000000
vt 0.4901547432 0.8830257654 0.0000000000
vt 0.2493143529 0.8372169733 0.0000000000
vt 0.6673301458 0.4383881092 0.0000000000
vt 0.6719846129 0.4330657721 0.0000000000
vt 0.0005000000 0.9285424352 0.0000000000
vt 0.6984254122 0.4687318504 0.0000000000
vt 0.6288955212 0.8684479594 0.0000000000
vt 0.2533411682 0.8365162015 0.0000000000
vt 0.9171581864 0.2389528155 0.0000000000
vt 0.8593668342 0.5081508160 0.0000000000
vt 0.7335846424 0.5092560649 0.0000000000
vt 0.8785927296 0.4892037809 0.0000000000
vt 0.9156814218 0.4894417822 0.0000000000
vt 0.9155569673 0.5085605979 0.0000000000
vt 0.6957752109 0.4714435339 0.0000000000
vt 0.5524159670 0.3696332276 0.0000000000
vt 0.9151772261 0.9355275631 0.0000000000
vt 0.9679419994 0.4897579849 0.0000000000
vt 0.9869546890 0.5089980364 0.0000000000
vt 0.9692108631 0.2757677436 0.0000000000
vt 0.8801675439 0.2757822871 0.0000000000
vt 0.9171584249 0.2757785320 0.0000000000
vt 0.2583255470 0.2542906404 0.0000000000
vt 0.5108525157 0.2542906404 0.0000000000
vt 0.5111750960 0.3805539906 0.0000000000
vt 0.2583255470 0.3805539906 0.0000000000
vt 0.0054762987 0.3805539906 0.0000000000
vt 0.0057986430 0.2542906404 0.0000000000
vt 0.2500496209 0.6805995703 0.0000000000
vt 0.5025716424 0.6791290641 0.0000000000
vt 0.4443863928 0.7099064589 0.0000000000
vt 0.2503781617 0.7370491028 0.0000000000
vt 0.4141639471 0.8228261471 0.0000000000
vt 0.2895892262 0.8235513568 0.0000000000
vt 0.2507951558 0.8086728454 0.0000000000
vt 0.4201888442 0.7532321811 0.0000000000
vt 0.2493143529 0.5543380380 0.0000000000
vt 0.5018363595 0.5528678894 0.0000000000
vt 0.4201223850 0.8206168413 0.0000000000
vt 0.4796222448 0.7868654728 0.0000000000
vt 0.4769084454 0.7942821980 0.0000000000
vt 0.4506742954 0.7770051360 0.0000000000
vt 0.5156435966 0.8001050353 0.0000000000
vt 0.5147754550 0.8051668406 0.0000000000
vt 0.7064063549 0.8054349422 0.0000000000
vt 0.7062653303 0.8104833961 0.0000000000
vt 0.5155085921 0.8130498528 0.0000000000
vt 0.4789669216 0.8111690283 0.0000000000
vt 0.4721442461 0.8023375869 0.0000000000
vt 0.5153909922 0.8079991937 0.0000000000
vt 0.4250218570 0.8228653669 0.0000000000
vt 0.4575317800 0.8083398938 0.0000000000
vt 0.4438937008 0.8012937307 0.0000000000
vt 0.7063891292 0.8082326651 0.0000000000
vt 0.7062618136 0.8031812906 0.0000000000
vt 0.7859149575 0.7644957304 0.0000000000
vt 0.7294643521 0.7645577192 0.0000000000
vt 0.7552635074 0.5703653693 0.0000000000
vt 0.7856373191 0.5119685531 0.0000000000
vt 0.6425555944 0.6013689637 0.0000000000
vt 0.7121059895 0.5948623419 0.0000000000
vt 0.6578393579 0.7646363378 0.0000000000
vt 0.6426923871 0.7259461880 0.0000000000
vt 0.9119012952 0.5118299127 0.0000000000
vt 0.9121787548 0.7643570900 0.0000000000
vt 0.6447233558 0.5953953266 0.0000000000
vt 0.6881227493 0.5645426512 0.0000000000
vt 0.6706646681 0.5384292006 0.0000000000
vt 0.6780620217 0.5356639624 0.0000000000
vt 0.6595185399 0.5006411672 0.0000000000
vt 0.6645738482 0.4997379780 0.0000000000
vt 0.6516315341 0.4999607503 0.0000000000
vt 0.6566825509 0.5000433326 0.0000000000
vt 0.6626423001 0.5432486534 0.0000000000
vt 0.6537640691 0.5364874005 0.0000000000
vt 0.6567411423 0.5579020381 0.0000000000
vt 0.6424410343 0.5905115008 0.0000000000
vt 0.6638815403 0.5714911222 0.0000000000
vt 0.6943255663 0.1102044135 0.0000000000
vt 0.6953867078 0.2072413564 0.0000000000
vt 0.6860305667 0.2046528310 0.0000000000
vt 0.6871839166 0.1163218990 0.0000000000
vt 0.6763376594 0.2091252506 0.0000000000
vt 0.6766639352 0.1213124618 0.0000000000
vt 0.7049497366 0.2113312781 0.0000000000
vt 0.7051366568 0.1147673503 0.0000000000
vt 0.2462471426 0.6411774158 0.0000000000
vt 0.0801205859 0.8937044740 0.0000000000
vt 0.0801206008 0.6411774158 0.0000000000
vt 0.2462471575 0.3886503875 0.0000000000
vt 0.2046977580 0.3886503875 0.0000000000
vt 0.0801206157 0.3886503875 0.0000000000
vt 0.4285995960 0.4778260291 0.0000000000
vt 0.4285995960 0.5075312257 0.0000000000
vt 0.2592669427 0.5075312257 0.0000000000
vt 0.2592669427 0.4778260291 0.0000000000
vt 0.2592669427 0.4632946849 0.0000000000
vt 0.4285995960 0.4632946849 0.0000000000
vt 0.4798092246 0.4010546505 0.0000000000
vt 0.4849121273 0.3932823539 0.0000000000
vt 0.4992350638 0.3879109025 0.0000000000
vt 0.5033545494 0.4184611142 0.0000000000
vt 0.5111294389 0.3950413167 0.0000000000
vt 0.4422090948 0.3870495558 0.0000000000
vt 0.4414731562 0.3838509917 0.0000000000
vt 0.2582681775 0.3836740553 0.0000000000
vt 0.2582668960 0.3868718147 0.0000000000
vt 0.0367894545 0.4009835422 0.0000000000
vt 0.0132966787 0.4184293449 0.0000000000
vt 0.0173479076 0.3878900111 0.0000000000
vt 0.0316732004 0.3932273984 0.0000000000
vt 0.0054762838 0.3950413167 0.0000000000
vt 0.0750628412 0.3837098479 0.0000000000
vt 0.0743341967 0.3869076371 0.0000000000
vt 0.5272723436 0.8613189459 0.0000000000
vt 0.5333899260 0.8540782332 0.0000000000
vt 0.6217208505 0.8529250026 0.0000000000
vt 0.6243093610 0.8622811437 0.0000000000
vt 0.5383804440 0.8435584307 0.0000000000
vt 0.6261932254 0.8432322145 0.0000000000
vt 0.5318353772 0.8720312119 0.0000000000
vt 0.6283993125 0.8718441129 0.0000000000
vt 0.9658997059 0.5754428506 0.0000000000
vt 0.9995000362 0.5754428506 0.0000000000
vt 0.9995000362 0.5899740458 0.0000000000
vt 0.9658997059 0.5230101347 0.0000000000
vt 0.9995000362 0.5457375050 0.0000000000
vt 0.2705771029 0.8601517677 0.0000000000
vt 0.2675434351 0.8628051281 0.0000000000
vt 0.3038711548 0.8824708462 0.0000000000
vt 0.2985482812 0.8871262670 0.0000000000
vt 0.7100510001 0.4786451161 0.0000000000
vt 0.7084946036 0.4808084965 0.0000000000
vt 0.7213283777 0.4866848886 0.0000000000
vt 0.7210626602 0.4896177053 0.0000000000
vt 0.9161369205 0.5230101347 0.0000000000
vt 0.9161368012 0.6923429966 0.0000000000
vt 0.7307806015 0.1051201969 0.0000000000
vt 0.6971802115 0.0823927522 0.0000000000
vt 0.6971802115 0.0678616911 0.0000000000
vt 0.7307806015 0.0678616911 0.0000000000
vt 0.6971802711 0.0381563567 0.0000000000
vt 0.7307806015 0.0154288579 0.0000000000
vt 0.7619900107 0.5130575895 0.0000000000
vt 0.7392626405 0.5466579199 0.0000000000
vt 0.7095571160 0.5466579199 0.0000000000
vt 0.7095571160 0.5130575895 0.0000000000
vt 0.6950260997 0.5466579199 0.0000000000
vt 0.6722987294 0.5130575895 0.0000000000
vt 0.5097288489 0.9437959194 0.0000000000
vt 0.4810226560 0.9211130738 0.0000000000
vt 0.5400390029 0.9899264574 0.0000000000
vt 0.9928460121 0.9046877027 0.0000000000
vt 0.9044867158 0.9354073405 0.0000000000
vt 0.9044340253 0.9452827573 0.0000000000
vt 0.5478915572 0.0377585515 0.0000000000
vt 0.5814918876 0.0377585515 0.0000000000
vt 0.5814918876 0.0674640089 0.0000000000
vt 0.5478916168 0.0005000000 0.0000000000
vt 0.5814918876 0.0232273135 0.0000000000
vt 0.5130575895 0.1925597191 0.0000000000
vt 0.5130575895 0.0232274346 0.0000000000
vt 0.0652038455 0.6809877157 0.0000000000
vt 0.0652039051 0.9335148931 0.0000000000
vt 0.0155787300 0.9335148931 0.0000000000
vt 0.3119886518 0.8768325448 0.0000000000
vt 0.3347160816 0.8432322145 0.0000000000
vt 0.5040487051 0.8432322741 0.0000000000
vt 0.5267761946 0.8768326044 0.0000000000
vt 0.7142434716 0.4038874805 0.0000000000
vt 0.4413739443 0.4284606874 0.0000000000
vt 0.4641015828 0.4620610178 0.0000000000
vt 0.6579216719 0.3090297878 0.0000000000
vt 0.6528744698 0.3092058301 0.0000000000
vt 0.6551426053 0.3090759814 0.0000000000
vt 0.6601940393 0.3091687858 0.0000000000
vt 0.7142435312 0.2086520493 0.0000000000
vt 0.7123999000 0.1208580509 0.0000000000
vt 0.5379260182 0.8792943954 0.0000000000
vt 0.6257200837 0.8811379671 0.0000000000
# 288 texture coords

o Box001
g Box001
usemtl Material__17
s 8
f 2/137/1 1/138/2 11/139/3 
f 11/139/4 10/140/5 2/137/6 
s 4
f 4/71/7 72/72/8 53/195/9 
f 53/195/10 5/4/11 4/71/12 
s 1
f 33/207/13 36/208/14 37/209/15 
f 37/209/16 32/210/17 33/207/18 
s 4
f 8/9/19 54/54/20 60/60/21 
f 60/60/22 9/8/23 8/9/24 
s 8
f 4/142/25 5/143/26 13/144/27 
f 13/144/28 12/141/29 4/142/30 
s 1
f 51/5/31 54/10/32 8/39/33 
f 8/39/34 2/2/35 51/5/36 
s 8
f 2/137/37 8/145/38 9/146/39 
f 9/146/40 1/138/41 2/137/42 
s 1
f 48/202/43 49/203/44 50/204/45 
f 50/204/46 47/201/47 48/202/48 
s 8
f 13/144/49 5/143/50 10/140/51 
f 10/140/52 11/139/53 13/144/54 
s 1
f 37/209/55 38/211/56 32/210/57 
s 8
f 14/147/58 12/141/59 13/144/60 
s 1
f 15/15/61 56/52/62 52/56/63 
f 52/56/64 3/3/65 15/15/66 
f 33/207/67 34/212/68 35/213/69 
f 35/213/70 36/208/71 33/207/72 
s 2
f 16/6/73 6/16/74 93/21/75 
f 93/21/76 94/22/77 16/6/78 
s 1
f 46/206/79 47/201/80 50/204/81 
f 50/204/82 45/205/83 46/206/84 
s 2
f 1/11/85 18/17/86 17/18/87 
f 17/18/88 11/1/89 1/11/90 
f 99/19/91 100/20/92 19/55/93 
f 1/11/94 99/19/95 19/55/96 
f 1/11/97 19/55/98 18/17/99 
f 6/16/100 13/23/101 22/24/102 
f 22/24/103 21/62/104 6/16/105 
f 61/91/106 62/92/107 23/93/108 
f 13/23/109 61/91/110 23/93/111 
f 13/23/112 23/93/113 22/24/114 
s 1
f 20/224/115 23/225/116 24/226/117 
f 24/226/118 19/223/119 20/224/120 
f 17/227/121 22/228/122 23/225/123 
f 23/225/124 20/224/125 17/227/126 
f 17/287/127 18/229/128 21/230/129 
f 21/230/130 22/288/131 17/287/132 
f 18/229/133 19/223/134 24/226/135 
f 24/226/136 21/230/137 18/229/138 
s 8
f 6/148/139 26/149/140 25/150/141 
f 25/150/142 13/144/143 6/148/144 
f 16/151/145 27/152/146 26/149/147 
f 26/149/148 6/148/149 16/151/150 
f 94/153/151 110/154/152 27/152/153 
f 27/152/154 16/151/155 94/153/156 
f 3/156/157 29/157/158 28/158/159 
f 28/158/160 15/155/161 3/156/162 
f 3/156/163 7/159/164 30/160/165 
f 30/160/166 29/157/167 3/156/168 
f 7/159/169 14/147/170 31/161/171 
f 31/161/172 30/160/173 7/159/174 
f 13/144/175 25/150/176 31/161/177 
s 2
f 26/27/178 33/33/179 32/34/180 
f 32/34/181 25/26/182 26/27/183 
f 27/73/184 34/89/185 33/33/186 
f 33/33/187 26/27/188 27/73/189 
f 110/107/190 116/109/191 34/89/192 
f 34/89/193 27/73/194 110/107/195 
f 28/28/196 29/29/197 36/30/198 
f 36/30/199 35/35/200 28/28/201 
f 30/36/202 37/37/203 36/30/204 
f 36/30/205 29/29/206 30/36/207 
f 30/36/208 31/63/209 38/74/210 
f 38/74/211 37/37/212 30/36/213 
s 4
f 31/25/214 25/31/215 32/32/216 
f 32/32/217 38/38/218 31/25/219 
s 8
f 31/161/220 14/147/221 13/144/222 
s 1
f 2/2/223 10/41/224 41/42/225 
f 41/42/226 40/43/227 2/2/228 
f 10/41/229 5/44/230 42/51/231 
f 42/51/232 41/42/233 10/41/234 
f 53/53/235 64/64/236 43/65/237 
f 5/44/238 53/53/239 43/65/240 
f 5/44/241 43/65/242 42/51/243 
s 2
f 39/40/244 40/45/245 46/46/246 
f 46/46/247 45/278/248 39/40/249 
s 4
f 40/47/250 41/231/251 47/232/252 
f 47/232/253 46/233/254 40/47/255 
f 41/231/256 42/234/257 48/235/258 
f 48/235/259 47/232/260 41/231/261 
s 2
f 42/48/262 43/49/263 49/269/264 
f 49/269/265 48/270/266 42/48/267 
s 4
f 43/50/268 44/264/269 50/265/270 
f 50/265/271 49/266/272 43/50/273 
f 44/264/274 39/267/275 45/268/276 
f 45/268/277 50/265/278 44/264/279 
s 1
f 57/87/280 7/88/281 3/3/282 
f 3/3/283 52/56/284 57/87/285 
f 35/213/286 34/212/287 116/215/288 
f 116/215/289 123/214/290 35/213/291 
s 4
f 4/71/292 12/196/293 59/197/294 
f 59/197/295 72/72/296 4/71/297 
s 1
f 1/132/298 9/133/299 60/134/300 
f 60/134/301 99/131/302 1/132/303 
s 16
f 58/7/304 14/12/305 7/14/306 
f 7/14/307 57/57/308 58/7/309 
f 12/59/310 14/12/311 58/7/312 
f 58/7/313 59/58/314 12/59/315 
s 1
f 13/61/316 11/80/317 55/271/318 
f 55/271/319 61/13/320 13/61/321 
s 2
f 20/68/322 19/55/323 100/20/324 
f 100/20/325 124/67/326 20/68/327 
f 11/1/328 17/18/329 20/68/330 
f 55/97/331 11/1/332 20/68/333 
f 55/97/334 20/68/335 124/67/336 
f 125/94/337 24/102/338 23/93/339 
f 23/93/340 62/92/341 125/94/342 
f 6/16/343 21/62/344 24/102/345 
f 93/21/346 6/16/347 24/102/348 
f 93/21/349 24/102/350 125/94/351 
s 8
f 15/155/352 28/158/353 63/163/354 
f 63/163/355 56/162/356 15/155/357 
s 2
f 63/75/358 28/28/359 35/35/360 
f 35/35/361 123/90/362 63/75/363 
s 1
f 40/43/364 39/66/365 126/69/366 
f 2/2/367 40/43/368 126/69/369 
f 51/5/370 2/2/371 126/69/372 
f 65/70/373 44/117/374 43/65/375 
f 43/65/376 64/64/377 65/70/378 
f 39/66/379 44/117/380 65/70/381 
f 65/70/382 126/69/383 39/66/384 
s 8
f 66/164/385 69/165/386 68/166/387 
f 68/166/388 67/167/389 66/164/390 
s 4
f 71/199/391 70/198/392 53/195/393 
f 53/195/394 72/72/395 71/199/396 
s 1
f 73/216/397 76/217/398 75/218/399 
f 75/218/400 74/219/401 73/216/402 
s 4
f 78/78/403 77/77/404 60/60/405 
f 60/60/406 54/54/407 78/78/408 
s 8
f 71/171/409 79/168/410 80/169/411 
f 80/169/412 70/170/413 71/171/414 
s 1
f 51/5/415 66/118/416 78/119/417 
f 78/119/418 54/10/419 51/5/420 
s 8
f 66/164/421 67/167/422 77/172/423 
f 77/172/424 78/173/425 66/164/426 
s 1
f 82/84/427 81/81/428 84/82/429 
f 84/82/430 83/83/431 82/84/432 
s 8
f 80/169/433 68/166/434 69/165/435 
f 69/165/436 70/170/437 80/169/438 
s 1
f 75/218/439 76/217/440 85/220/441 
s 8
f 86/174/442 80/169/443 79/168/444 
s 1
f 88/259/445 87/258/446 52/56/447 
f 52/56/448 56/52/449 88/259/450 
f 73/216/451 74/219/452 90/221/453 
f 90/221/454 89/222/455 73/216/456 
s 2
f 91/103/457 94/22/458 93/21/459 
f 93/21/460 92/104/461 91/103/462 
s 1
f 96/245/463 95/244/464 84/82/465 
f 84/82/466 81/81/467 96/245/468 
s 2
f 67/101/469 68/98/470 98/99/471 
f 98/99/472 97/100/473 67/101/474 
f 67/101/475 97/100/476 101/105/477 
f 101/105/478 100/20/479 99/19/480 
f 67/101/481 101/105/482 99/19/483 
f 92/104/484 103/106/485 102/125/486 
f 102/125/487 80/261/488 92/104/489 
f 80/261/490 102/125/491 104/262/492 
f 104/262/493 62/92/494 61/91/495 
f 80/261/496 104/262/497 61/91/498 
s 1
f 105/190/499 101/187/500 106/188/501 
f 106/188/502 104/189/503 105/190/504 
f 98/192/505 105/190/506 104/189/507 
f 104/189/508 102/191/509 98/192/510 
f 98/286/511 102/285/512 103/193/513 
f 103/193/514 97/194/515 98/286/516 
f 97/194/517 103/193/518 106/188/519 
f 106/188/520 101/187/521 97/194/522 
s 8
f 92/177/523 80/169/524 108/175/525 
f 108/175/526 107/176/527 92/177/528 
f 91/179/529 92/177/530 107/176/531 
f 107/176/532 109/178/533 91/179/534 
f 94/281/535 91/179/536 109/178/537 
f 109/178/538 110/282/539 94/281/540 
f 87/183/541 88/180/542 112/181/543 
f 112/181/544 111/182/545 87/183/546 
f 87/183/547 111/182/548 114/184/549 
f 114/184/550 113/185/551 87/183/552 
f 113/185/553 114/184/554 115/186/555 
f 115/186/556 86/174/557 113/185/558 
f 80/169/559 115/186/560 108/175/561 
s 2
f 107/237/562 108/110/563 76/116/564 
f 76/116/565 73/236/566 107/237/567 
f 109/239/568 107/237/569 73/236/570 
f 73/236/571 89/238/572 109/239/573 
f 110/107/574 109/239/575 89/238/576 
f 89/238/577 116/109/578 110/107/579 
f 112/111/580 90/112/581 74/114/582 
f 74/114/583 111/123/584 112/111/585 
f 114/241/586 111/123/587 74/114/588 
f 74/114/589 75/240/590 114/241/591 
f 114/241/592 75/240/593 85/242/594 
f 85/242/595 115/243/596 114/241/597 
s 4
f 115/76/598 85/85/599 76/108/600 
f 76/108/601 108/115/602 115/76/603 
s 8
f 115/186/604 80/169/605 86/174/606 
s 1
f 66/118/607 118/120/608 117/121/609 
f 117/121/610 69/122/611 66/118/612 
f 69/122/613 117/121/614 119/126/615 
f 119/126/616 70/127/617 69/122/618 
f 70/127/619 119/126/620 120/128/621 
f 120/128/622 64/64/623 53/53/624 
f 70/127/625 120/128/626 53/53/627 
s 2
f 121/95/628 95/96/629 96/279/630 
f 96/279/631 118/280/632 121/95/633 
s 4
f 118/246/634 96/247/635 81/248/636 
f 81/248/637 117/249/638 118/246/639 
f 117/249/640 81/248/641 82/250/642 
f 82/250/643 119/251/644 117/249/645 
s 2
f 119/274/646 82/275/647 83/276/648 
f 83/276/649 120/277/650 119/274/651 
s 4
f 120/252/652 83/253/653 84/254/654 
f 84/254/655 122/255/656 120/252/657 
f 122/255/658 84/254/659 95/256/660 
f 95/256/661 121/257/662 122/255/663 
s 1
f 57/87/664 52/56/665 87/258/666 
f 87/258/667 113/260/668 57/87/669 
f 90/221/670 123/214/671 116/215/672 
f 116/215/673 89/222/674 90/221/675 
s 4
f 71/199/676 72/72/677 59/197/678 
f 59/197/679 79/200/680 71/199/681 
s 1
f 67/136/682 99/131/683 60/134/684 
f 60/134/685 77/135/686 67/136/687 
s 16
f 58/7/688 57/57/689 113/79/690 
f 113/79/691 86/86/692 58/7/693 
f 79/113/694 59/58/695 58/7/696 
f 58/7/697 86/86/698 79/113/699 
s 1
f 80/273/700 61/13/701 55/271/702 
f 55/271/703 68/272/704 80/273/705 
s 2
f 105/124/706 124/67/707 100/20/708 
f 100/20/709 101/105/710 105/124/711 
f 55/97/712 124/67/713 105/124/714 
f 105/124/715 98/99/716 68/98/717 
f 55/97/718 105/124/719 68/98/720 
f 125/94/721 62/92/722 104/262/723 
f 104/262/724 106/263/725 125/94/726 
f 93/21/727 125/94/728 106/263/729 
f 106/263/730 103/106/731 92/104/732 
f 93/21/733 106/263/734 92/104/735 
s 8
f 88/180/736 56/283/737 63/284/738 
f 63/284/739 112/181/740 88/180/741 
s 2
f 63/75/742 123/90/743 90/112/744 
f 90/112/745 112/111/746 63/75/747 
s 1
f 126/69/748 121/129/749 118/120/750 
f 126/69/751 118/120/752 66/118/753 
f 51/5/754 126/69/755 66/118/756 
f 65/70/757 64/64/758 120/128/759 
f 120/128/760 122/130/761 65/70/762 
f 121/129/763 126/69/764 65/70/765 
f 65/70/766 122/130/767 121/129/768 
# 256 faces

